<svg width="1920" height="148" viewBox="0 0 1920 148" fill="none" xmlns="http://www.w3.org/2000/svg">
<rect width="1920" height="148" fill="url(#paint0_radial_7488_302552)"/>
<g opacity="0.24">
<path d="M1496.66 48.1037C1501.16 48.1037 1505.21 50.1407 1507.89 53.3499C1510.55 50.1407 1514.58 48.1037 1519.06 48.1037C1527.09 48.1037 1533.15 54.1955 1533.74 61.6132C1533.76 61.9399 1533.74 62.6317 1533.8 63.4389C1534.18 67.2438 1537.21 70.357 1541.27 70.357C1545.53 70.357 1548.96 66.9748 1548.96 62.7086C1548.96 58.4617 1545.51 55.1179 1541.27 55.1179C1538.34 55.1179 1535.87 56.7706 1534.57 59.2111C1533.99 56.6745 1532.63 54.2147 1530.92 52.3507C1533.68 49.5258 1537.65 47.8731 1541.91 48.0076C1549.97 48.2959 1556.28 55.0987 1555.99 63.189C1555.7 71.2794 1548.94 77.6018 1540.85 77.3327C1536.85 77.1982 1533.28 75.5071 1530.71 72.7399L1530.14 72.1249C1528.01 69.5114 1526.84 66.7442 1526.65 63.804C1526.65 63.7463 1526.65 63.1122 1526.65 62.8239C1526.65 58.577 1523.24 55.1179 1518.99 55.1179C1514.73 55.1179 1511.49 58.5577 1511.49 62.8239C1511.49 63.1506 1511.49 75.6801 1511.49 77.3712C1509.1 77.448 1507.14 76.468 1505.61 74.3733C1504.84 73.2395 1504.34 71.6061 1504.34 70.626V62.2474C1503.98 58.2887 1500.68 55.1563 1496.64 55.1563C1492.42 55.1563 1489.22 58.5193 1489.22 62.7278V77.4096C1485.39 77.4096 1482.17 74.5847 1482 70.9527V62.5741C1482.11 54.5606 1488.63 48.1037 1496.66 48.1037ZM1533.86 76.91C1533.86 77.2751 1533.86 77.5633 1533.86 77.8131C1533.86 81.7718 1531.44 85.2885 1526.9 86.48C1526.88 86.48 1526.9 70.5107 1526.9 69.3577C1529.08 73.6623 1530.39 74.7961 1533.86 76.91Z" fill="white"/>
<path d="M1543.02 61.4597H1544.53C1545.28 61.4597 1545.89 62.0746 1545.89 62.8241C1545.89 63.5736 1545.28 64.1885 1544.53 64.1885H1543.02V65.7066C1543.02 66.4561 1542.4 67.071 1541.66 67.071C1540.91 67.071 1540.29 66.4561 1540.29 65.7066V64.1885H1538.78C1538.03 64.1885 1537.42 63.5736 1537.42 62.8241C1537.42 62.0746 1538.03 61.4597 1538.78 61.4597H1540.29V59.9416C1540.29 59.1921 1540.91 58.5771 1541.66 58.5771C1542.4 58.5771 1543.02 59.1921 1543.02 59.9416V61.4597Z" fill="white"/>
</g>
<g opacity="0.16">
<path d="M444.625 127.288C444.625 127.897 444.806 128.492 445.144 128.999C445.483 129.505 445.963 129.9 446.526 130.133C447.088 130.366 447.707 130.427 448.305 130.308C448.902 130.189 449.45 129.896 449.881 129.465C450.312 129.035 450.605 128.486 450.724 127.888C450.842 127.291 450.781 126.672 450.548 126.109C450.315 125.546 449.921 125.065 449.414 124.727C448.908 124.389 448.313 124.208 447.704 124.208C446.888 124.208 446.104 124.532 445.527 125.11C444.95 125.688 444.625 126.471 444.625 127.288V127.288Z" fill="white"/>
<path d="M428.015 64.5678V70.046H422.538V74.412H428.015V79.8902H432.387V74.412H437.864V70.046H432.387V64.5678H428.015ZM427.553 64.0986H432.848V69.5769H438.333V74.8735H432.848V80.3745H427.553V74.8811H422.077V69.5845H427.553V64.0986Z" fill="white"/>
<path d="M388.552 26.6969C388.552 26.9962 388.641 27.2888 388.807 27.5377C388.973 27.7866 389.209 27.9805 389.486 28.0951C389.762 28.2096 390.066 28.2396 390.36 28.1812C390.653 28.1228 390.923 27.9787 391.135 27.767C391.346 27.5554 391.49 27.2857 391.549 26.9922C391.607 26.6986 391.577 26.3943 391.462 26.1178C391.348 25.8413 391.154 25.6049 390.905 25.4386C390.656 25.2723 390.364 25.1836 390.065 25.1836C389.664 25.1836 389.279 25.343 388.995 25.6268C388.711 25.9106 388.552 26.2956 388.552 26.6969Z" fill="white"/>
<path d="M380.556 39.5142V52.3775H367.742V62.5773H380.556V75.3952H390.768V62.5773H403.605V52.3775H390.791V39.5142H380.556ZM379.459 38.417H391.903V51.2652H404.694V63.6669H391.903V76.4848H379.497V63.6669H366.683V51.2652H379.482V38.4473L379.459 38.417Z" fill="white"/>
<path d="M534.746 91.0127C534.116 91.0127 533.604 90.5011 533.604 89.8701C533.604 89.2391 534.116 88.7275 534.746 88.7275C535.377 88.7275 535.889 89.2391 535.889 89.8701C535.889 90.5011 535.377 91.0127 534.746 91.0127Z" fill="white"/>
<path d="M458.498 47.5807H467.439V38.6445H476.085V47.5807H485.026V56.237H476.085V65.1808H467.439V56.237H458.498V47.5807Z" fill="white"/>
<path d="M449.452 75.4407H455.972V68.9258H462.281V75.4407H468.794V81.7512H462.281V88.2737H455.972V81.7512H449.452V75.4407Z" fill="white"/>
<path d="M493.726 52.2793V66.0657H479.951V77.0525H493.726V90.8314H504.709V77.0525H518.491V66.0657H504.709V52.2793H493.726ZM492.553 51.1064H505.889V64.8853H519.664V78.2253H505.889V92.0118H492.553V78.2253H478.771V64.8853H492.553V51.1064V51.1064Z" fill="white"/>
<path d="M422.447 5.68736V25.4287H402.704V41.1674H422.447V60.9088H438.173V41.1674H457.916V25.4287H438.173V5.68736H422.447ZM420.76 4H439.86V23.7414H459.603V42.8547H439.86V62.5961H420.76V42.8547H400.979V23.7414H420.722V4H420.76Z" fill="white"/>
<path d="M401.101 93.5931H409.452V85.2471H417.523V93.5931H425.866V101.674H417.523V110.02H409.452V101.674H401.101V93.5931Z" fill="white"/>
<path d="M352.001 81.5924H366.464V67.125H380.451V81.5924H394.914V95.5907H380.451V110.051H366.464V95.5907H352.001V81.5924Z" fill="white"/>
</g>
<defs>
<radialGradient id="paint0_radial_7488_302552" cx="0" cy="0" r="1" gradientUnits="userSpaceOnUse" gradientTransform="translate(1848.32 148) rotate(-175.422) scale(1854.24 302.55)">
<stop offset="0.121891" stop-color="#3C8CE7"/>
<stop offset="1" stop-color="#00EAFF"/>
</radialGradient>
</defs>
</svg>
