<svg width="16px" height="16px" viewBox="0 0 16 16" xmlns="http://www.w3.org/2000/svg" version="1.1" fill="none" stroke="currentColor" stroke-linecap="round" stroke-linejoin="round" stroke-width="1.5">
<path d="m1.75 8s2-4.25 6.25-4.25 6.25 4.25 6.25 4.25-2 4.25-6.25 4.25-6.25-4.25-6.25-4.25z"/>
<circle cx="8" cy="8" r="1.25" fill="currentColor"/>
</svg>