<svg width="16px" height="16px" viewBox="0 0 16 16" xmlns="http://www.w3.org/2000/svg" version="1.1" fill="none" stroke="currentColor" stroke-linecap="round" stroke-linejoin="round" stroke-width="1.5">
<path d="m8.75 3.75c3.5.5 5.5 4.25 5.5 4.25s-.5 1.25-1.5 2.25m-2.5 1.5c-6 2-8.5-3.75-8.5-3.75s.5-1.75 3-3.25"/>
<path d="m8.625 9.08253a1.25 1.25 0 0 1 -1.64894 -.36556 1.25 1.25 0 0 1 .22046 -1.67453l.80348.95756z" fill="currentColor"/>
<path d="m3.75 1.75 8.5 12.5"/>
</svg>