<svg width="16px" height="16px" viewBox="0 0 16 16" xmlns="http://www.w3.org/2000/svg" version="1.1" fill="none" stroke="currentColor" stroke-linecap="round" stroke-linejoin="round" stroke-width="1.5">
<polygon points="4.75 2.25,4.75 10.25,14.25 10.25,14.25 3.75,9.25 3.75,7.75 2.25"/>
<polyline points="4.75 5.25,1.75 5.25,1.75 13.25,11.25 13.25,11.25 10.25"/>
</svg>